[
  {
    "name": "REACT PRO",
    "environments": {
      "int": "react-pro/int/",
      "qa": "react-pro/qa/",
      "staging": "react-pro/staging/"
    }
  }, {
    "name": "JQUERY PRO",
    "environments": {
      "qa": "jquery-pro/qa/",
      "production": "jquery-pro/production/"
    }
  }, {
    "name": "WEB PRO",
    "environments": {
      "qa": "web-pro/qa/",
      "staging": "web-pro/staging/"
    }
  }
]